﻿{
  "$schema": "http://json.schemastore.org/launchsettings.json",
  "profiles": {
    "Build NuGet package": {
      "commandName": "Executable",
      "workingDirectory": "$(MSBuildProjectDirectory)",
      "executablePath": "dotnet",
      "commandLineArgs": "pack -c Release"
    }
  }
}
